{
	"info": {
		"_postman_id": "ebbf6c12-c0ce-4b7b-b9fb-06e5457d4f21",
		"name": "TP_CICD",
		"schema": "https://schema.getpostman.com/json/collection/v2.1.0/collection.json",
		"_exporter_id": "14300782"
	},
	"item": [
		{
			"name": "Status",
			"event": [
				{
					"listen": "test",
					"script": {
						"exec": [
							"pm.test(\"Status code is 200\", function () {\r",
							"    pm.response.to.have.status(200)\r",
							"})"
						],
						"type": "text/javascript"
					}
				}
			],
			"request": {
				"method": "GET",
				"header": [],
				"url": {
					"raw": "{{URL_APP}}/status",
					"host": [
						"{{URL_APP}}"
					],
					"path": [
						"status"
					]
				}
			},
			"response": []
		},
		{
			"name": "Cities",
			"event": [
				{
					"listen": "test",
					"script": {
						"exec": [
							"pm.test(\"Body contains message\", function () {\r",
							"    pm.expect(pm.response.text()).to.include(\"Bordeaux\")\r",
							"})"
						],
						"type": "text/javascript"
					}
				}
			],
			"request": {
				"method": "GET",
				"header": [],
				"url": {
					"raw": "{{URL_APP}}/city",
					"host": [
						"{{URL_APP}}"
					],
					"path": [
						"city"
					]
				}
			},
			"response": []
		},
		{
			"name": "404",
			"event": [
				{
					"listen": "test",
					"script": {
						"exec": [
							"pm.test(\"Status code is 404\", function () {\r",
							"    pm.response.to.have.status(404)\r",
							"})"
						],
						"type": "text/javascript"
					}
				}
			],
			"request": {
				"method": "GET",
				"header": [],
				"url": {
					"raw": "{{URL_APP}}/hello-world",
					"host": [
						"{{URL_APP}}"
					],
					"path": [
						"hello-world"
					]
				}
			},
			"response": []
		}
	]
}